^E:\STUDIA\MODELOWANIE\PROJEKT\SI_SZARP\PROJEKT_OSTATECZNY\PROJEKT_OSTATECZNY\FORM1.RESX|E:\STUDIA\MODELOWANIE\PROJEKT\SI_SZARP\PROJEKT_OSTATECZNY\PROJEKT_OSTATECZNY\PROPERTIES\RESOURCES.RESX
E:\STUDIA\MODELOWANIE\PROJEKT\SI_SZARP\PROJEKT_OSTATECZNY\PROJEKT_OSTATECZNY\OBJ\X86\RELEASE\PROJEKT_OSTATECZNY.FORM1.RESOURCES
E:\STUDIA\MODELOWANIE\PROJEKT\SI_SZARP\PROJEKT_OSTATECZNY\PROJEKT_OSTATECZNY\OBJ\X86\RELEASE\PROJEKT_OSTATECZNY.PROPERTIES.RESOURCES.RESOURCES
